Stats & Data Science II - Assignment
…
# Calculate the actual and predicted total by census tract
section_summary1 <- train.data1 |>
  group_by(census_section_code) |>
  mutate(
    total_real_pharmacies = sum(n_pharmacies),
    total_predicted_pharmacies = sum(predicted_pharmacies),
    total_predicted_pharmacies_rounded = round(sum(predicted_pharmacies))
  ) |>
  ungroup()

print(section_summary1 |> dplyr:: select(total_real_pharmacies:total_predicted_pharmacies_rounded))

## # A tibble: 3,532 × 3
##    total_real_pharmacies total_predicted_pharmacies total_predicted_pharmacies…¹
##                    <int>                      <dbl>                        <dbl>
##  1                     2                      0.725                            1
##  2                     1                      0.763                            1
##  3                     0                      0.572                            1
##  4                     0                      0.589                            1
##  5                     0                      0.552                            1
##  6                     0                      0.931                            1
##  7                     0                      0.857                            1
##  8                     1                      0.647                            1
##  9                     0                      0.628                            1
## 10                     0                      0.626                            1
## # ℹ 3,522 more rows
## # ℹ abbreviated name: ¹​total_predicted_pharmacies_rounded
…
# Calculate the actual and predicted total by census tract
section_summary2 <- train.data2 |>
  group_by(census_section_code) |>
  mutate(
    total_real_schools = sum(n_schools),
    total_predicted_schools = sum(predicted_schools),
    total_predicted_schools_rounded = round(sum(predicted_schools))
  ) |>
  ungroup()

print(section_summary2 |> dplyr:: select(total_real_schools:total_predicted_schools_rounded))

## # A tibble: 3,532 × 3
##    total_real_schools total_predicted_schools total_predicted_schools_rounded
##                 <int>                   <dbl>                           <dbl>
##  1                  0                  0.502                                1
##  2                  0                  0.417                                0
##  3                  0                  0.203                                0
##  4                  0                  0.0317                               0
##  5                  0                  0.495                                0
##  6                  1                  0.629                                1
##  7                  3                  1.42                                 1
##  8                  0                  0.0336                               0
##  9                  0                  0.549                                1
## 10                  0                  0.453                                0
## # ℹ 3,522 more rows
…
# Calculate the actual and predicted total by census tract
section_summary3 <- train.data3 |>
  group_by(census_section_code) |>
  mutate(
    total_real_transport = sum(n_transport_salespoints),
    total_predicted_transport = sum(predicted_transport),
    total_predicted_transport_rounded = round(sum(predicted_transport))
  ) |>
  ungroup()

print(section_summary3 |> dplyr:: select(total_real_transport:total_predicted_transport_rounded))

## # A tibble: 3,532 × 3
##    total_real_transport total_predicted_transport total_predicted_transport_ro…¹
##                   <int>                     <dbl>                          <dbl>
##  1                    1                    0.251                               0
##  2                    0                    0.188                               0
##  3                    0                    0.198                               0
##  4                    1                    0.182                               0
##  5                    0                    0.0844                              0
##  6                    0                    0.247                               0
##  7                    0                    0.278                               0
##  8                    0                    0.309                               0
##  9                    0                    0.264                               0
## 10                    0                    0.269                               0
## # ℹ 3,522 more rows
## # ℹ abbreviated name: ¹​total_predicted_transport_rounded
…
